<svg width="200" height="70" viewBox="0 0 200 70" fill="none" xmlns="http://www.w3.org/2000/svg">
<path d="M88.1567 30.0386V29.6824C87.6521 30.2761 87.1772 30.751 86.7023 31.1072C86.2274 31.4634 85.6931 31.7602 85.1291 31.9383C84.5651 32.1164 83.9418 32.2351 83.2888 32.2351C82.3983 32.2351 81.5969 32.0273 80.8252 31.6711C80.0831 31.2853 79.4301 30.7213 78.8661 30.0089C78.3022 29.2965 77.8866 28.4654 77.6195 27.4859C77.3226 26.5064 77.2039 25.4675 77.2039 24.3396C77.2039 21.965 77.7679 20.095 78.8958 18.789C80.0237 17.4533 81.5079 16.8002 83.3482 16.8002C84.4167 16.8002 85.3072 16.9783 86.0493 17.3642C86.7913 17.7501 87.5037 18.3141 88.1864 19.0858V13.4758C88.1864 12.7041 88.3348 12.1104 88.6316 11.6949C88.9285 11.309 89.3737 11.1012 89.9377 11.1012C90.5016 11.1012 90.9172 11.2793 91.2437 11.6652C91.5405 12.0214 91.6889 12.5853 91.6889 13.2977V30.0683C91.6889 30.7807 91.5405 31.3446 91.214 31.7008C90.8875 32.057 90.472 32.2351 89.9674 32.2351C89.4628 32.2351 89.0472 32.057 88.7207 31.6711C88.3348 31.2853 88.1567 30.751 88.1567 30.0386ZM80.8845 24.4583C80.8845 25.4972 81.0329 26.358 81.3595 27.1C81.6563 27.8124 82.1015 28.3764 82.6358 28.7326C83.1701 29.0888 83.7637 29.2965 84.4167 29.2965C85.0698 29.2965 85.6634 29.1184 86.1977 28.7623C86.732 28.4061 87.1475 27.8718 87.474 27.1594C87.8005 26.447 87.9489 25.5269 87.9489 24.4583C87.9489 23.4491 87.8005 22.5883 87.474 21.8463C87.1475 21.1042 86.732 20.5699 86.168 20.184C85.6337 19.7982 85.0401 19.6201 84.3871 19.6201C83.7044 19.6201 83.1107 19.8279 82.5764 20.2137C82.0422 20.5996 81.6266 21.1636 81.3298 21.9056C81.0329 22.618 80.8845 23.4788 80.8845 24.4583Z" fill="#075A8C"/>
<path d="M105.669 25.4081H98.4566C98.4566 26.2689 98.6346 27.0407 98.9612 27.6937C99.2877 28.3467 99.7329 28.8513 100.267 29.1778C100.801 29.5043 101.425 29.6824 102.078 29.6824C102.523 29.6824 102.909 29.6231 103.295 29.534C103.651 29.4153 104.007 29.2669 104.363 29.0294C104.72 28.7919 105.016 28.5545 105.313 28.2873C105.61 28.0202 105.966 27.664 106.441 27.2188C106.619 27.0407 106.886 26.9813 107.243 26.9813C107.628 26.9813 107.925 27.1 108.163 27.3078C108.4 27.5156 108.519 27.8124 108.519 28.228C108.519 28.5842 108.4 28.97 108.133 29.445C107.866 29.9199 107.48 30.3354 106.946 30.7807C106.411 31.1962 105.758 31.5524 104.957 31.8195C104.156 32.0867 103.235 32.2351 102.197 32.2351C99.8219 32.2351 97.9816 31.5524 96.6756 30.1573C95.3696 28.7623 94.6869 26.8626 94.6869 24.488C94.6869 23.3601 94.8353 22.3212 95.1618 21.3713C95.4883 20.4215 95.9632 19.5904 96.5866 18.9077C97.2099 18.225 97.9816 17.6907 98.8721 17.3345C99.7923 16.9783 100.801 16.7706 101.9 16.7706C103.354 16.7706 104.571 17.0971 105.61 17.7204C106.649 18.3437 107.421 19.1452 107.925 20.1544C108.43 21.1339 108.697 22.1728 108.697 23.182C108.697 24.1318 108.43 24.7551 107.896 25.052C107.361 25.2894 106.619 25.4081 105.669 25.4081ZM98.4269 23.271H105.135C105.046 21.965 104.69 20.9855 104.126 20.3621C103.532 19.7091 102.761 19.3826 101.781 19.3826C100.861 19.3826 100.119 19.7091 99.5251 20.3621C98.9315 21.0152 98.5753 21.965 98.4269 23.271Z" fill="#075A8C"/>
<path d="M122.113 25.4081H114.901C114.901 26.2689 115.079 27.0407 115.405 27.6937C115.732 28.3467 116.177 28.8513 116.711 29.1778C117.245 29.5043 117.869 29.6824 118.522 29.6824C118.967 29.6824 119.353 29.6231 119.739 29.534C120.095 29.4153 120.451 29.2669 120.807 29.0294C121.164 28.7919 121.46 28.5545 121.757 28.2873C122.054 28.0202 122.41 27.664 122.885 27.2188C123.063 27.0407 123.33 26.9813 123.687 26.9813C124.072 26.9813 124.369 27.1 124.607 27.3078C124.844 27.5156 124.963 27.8124 124.963 28.228C124.963 28.5842 124.844 28.97 124.577 29.445C124.31 29.9199 123.924 30.3354 123.39 30.7807C122.855 31.1962 122.202 31.5524 121.401 31.8195C120.6 32.0867 119.679 32.2351 118.641 32.2351C116.266 32.2351 114.426 31.5524 113.12 30.1573C111.814 28.7623 111.131 26.8626 111.131 24.488C111.131 23.3601 111.279 22.3212 111.606 21.3713C111.932 20.4215 112.407 19.5904 113.031 18.9077C113.654 18.225 114.426 17.6907 115.316 17.3345C116.236 16.9783 117.245 16.7706 118.344 16.7706C119.798 16.7706 121.015 17.0971 122.054 17.7204C123.093 18.3437 123.865 19.1452 124.369 20.1544C124.874 21.1339 125.141 22.1728 125.141 23.182C125.141 24.1318 124.874 24.7551 124.34 25.052C123.835 25.2894 123.093 25.4081 122.113 25.4081ZM114.901 23.271H121.609C121.52 21.965 121.164 20.9855 120.6 20.3621C120.006 19.7091 119.234 19.3826 118.255 19.3826C117.334 19.3826 116.592 19.7091 115.999 20.3621C115.405 21.0152 115.019 21.965 114.901 23.271Z" fill="#075A8C"/>
<path d="M131.938 26.7142V29.8902C131.938 30.6619 131.76 31.2259 131.404 31.6118C131.048 31.9976 130.603 32.1757 130.068 32.1757C129.534 32.1757 129.089 31.968 128.762 31.5821C128.406 31.1962 128.258 30.6026 128.258 29.8605V19.3233C128.258 17.6017 128.851 16.7706 130.068 16.7706C130.692 16.7706 131.137 16.9783 131.404 17.3642C131.671 17.7501 131.82 18.3437 131.849 19.1452C132.294 18.3734 132.74 17.7798 133.215 17.3642C133.69 16.9487 134.313 16.7706 135.085 16.7706C135.856 16.7706 136.598 16.9783 137.34 17.3642C138.083 17.7501 138.439 18.2844 138.439 18.9671C138.439 19.442 138.29 19.8279 137.964 20.1247C137.667 20.4215 137.311 20.5699 136.955 20.5699C136.806 20.5699 136.48 20.4809 135.975 20.3028C135.47 20.1247 134.996 20.0356 134.61 20.0356C134.075 20.0356 133.63 20.184 133.274 20.4809C132.918 20.7777 132.651 21.2229 132.473 21.7869C132.294 22.3509 132.146 23.0336 132.087 23.835C131.968 24.6067 131.938 25.5862 131.938 26.7142Z" fill="#075A8C"/>
<path d="M142.713 19.1155L145.117 27.6046L147.314 19.7091C147.551 18.878 147.729 18.314 147.848 18.0172C147.967 17.7204 148.175 17.4236 148.471 17.1564C148.768 16.8893 149.213 16.7409 149.748 16.7409C150.312 16.7409 150.727 16.8893 151.054 17.1564C151.351 17.4236 151.588 17.7204 151.707 18.0469C151.826 18.3734 152.004 18.9077 152.241 19.7091L154.438 27.6046L156.872 19.1155C157.02 18.4921 157.168 18.0469 157.257 17.7798C157.346 17.5126 157.525 17.2752 157.762 17.0674C157.999 16.8596 158.326 16.7409 158.771 16.7409C159.216 16.7409 159.602 16.8893 159.929 17.2158C160.255 17.5423 160.404 17.8985 160.404 18.3437C160.404 18.7296 160.255 19.3232 159.988 20.1247L156.961 29.2372C156.693 30.0089 156.486 30.5729 156.367 30.8994C156.219 31.2556 155.981 31.5524 155.684 31.8195C155.387 32.0867 154.942 32.2351 154.408 32.2351C153.844 32.2351 153.399 32.0867 153.102 31.7899C152.775 31.493 152.538 31.1368 152.389 30.7213C152.241 30.3057 152.063 29.7715 151.885 29.0888L149.777 21.6682L147.729 29.0888C147.462 30.1276 147.165 30.8994 146.839 31.4337C146.512 31.9679 145.978 32.2351 145.177 32.2351C144.761 32.2351 144.435 32.146 144.138 31.9976C143.841 31.8492 143.603 31.6118 143.425 31.3149C143.247 31.0181 143.069 30.6619 142.921 30.2464C142.772 29.8308 142.654 29.5043 142.594 29.2668L139.596 20.1544C139.3 19.2936 139.151 18.6999 139.151 18.3734C139.151 17.9579 139.3 17.6017 139.626 17.2752C139.953 16.9487 140.338 16.8002 140.784 16.8002C141.407 16.8002 141.823 16.9783 142.03 17.3345C142.238 17.6313 142.446 18.2547 142.713 19.1155Z" fill="#075A8C"/>
<path d="M171.891 30.0683C171 30.7806 170.14 31.3149 169.308 31.6711C168.477 32.0273 167.527 32.2054 166.489 32.2054C165.539 32.2054 164.708 31.9976 163.995 31.6414C163.283 31.2556 162.719 30.7213 162.333 30.0683C161.947 29.4153 161.739 28.7029 161.739 27.9311C161.739 26.8922 162.066 26.0018 162.689 25.2597C163.342 24.5177 164.203 24.0427 165.331 23.7756C165.568 23.7162 166.132 23.5975 167.082 23.3897C168.002 23.1819 168.804 23.0039 169.457 22.8554C170.11 22.707 170.852 22.4993 171.624 22.2618C171.564 21.2526 171.386 20.5105 171.03 20.0653C170.674 19.5904 169.961 19.3529 168.863 19.3529C167.913 19.3529 167.231 19.5013 166.756 19.7685C166.281 20.0356 165.865 20.4512 165.539 20.9854C165.212 21.5197 164.975 21.8759 164.826 22.054C164.678 22.2321 164.381 22.3212 163.936 22.3212C163.52 22.3212 163.164 22.1727 162.867 21.9056C162.571 21.6385 162.422 21.2823 162.422 20.8667C162.422 20.184 162.66 19.5607 163.105 18.9077C163.55 18.2547 164.292 17.7501 165.242 17.3345C166.192 16.919 167.438 16.7112 168.893 16.7112C170.525 16.7112 171.802 16.919 172.722 17.3048C173.642 17.6907 174.295 18.314 174.681 19.1748C175.067 20.0356 175.245 21.1635 175.245 22.5883C175.245 23.4788 175.245 24.2505 175.245 24.8738C175.245 25.4972 175.245 26.1799 175.215 26.9516C175.215 27.664 175.334 28.406 175.571 29.1778C175.809 29.9495 175.928 30.4541 175.928 30.6619C175.928 31.0478 175.75 31.404 175.393 31.7305C175.037 32.057 174.622 32.2054 174.176 32.2054C173.79 32.2054 173.434 32.0273 173.048 31.6414C172.692 31.3149 172.306 30.7806 171.891 30.0683ZM171.653 24.577C171.119 24.7848 170.318 24.9926 169.308 25.23C168.27 25.4675 167.557 25.6159 167.171 25.7346C166.785 25.8534 166.4 26.0611 166.043 26.358C165.687 26.6548 165.509 27.1 165.509 27.664C165.509 28.228 165.717 28.7326 166.132 29.1481C166.548 29.5637 167.112 29.7418 167.795 29.7418C168.537 29.7418 169.19 29.5637 169.813 29.2372C170.436 28.9107 170.882 28.4951 171.178 27.9608C171.505 27.3968 171.683 26.447 171.683 25.1113V24.577H171.653Z" fill="#075A8C"/>
<path d="M179.015 29.8902V13.4165C179.015 12.6447 179.193 12.0807 179.519 11.6949C179.846 11.309 180.291 11.1012 180.855 11.1012C181.419 11.1012 181.864 11.2793 182.22 11.6652C182.576 12.0511 182.725 12.615 182.725 13.3868V29.8902C182.725 30.6619 182.547 31.2259 182.191 31.6118C181.834 31.9976 181.389 32.1757 180.855 32.1757C180.321 32.1757 179.875 31.968 179.549 31.5821C179.193 31.2259 179.015 30.6619 179.015 29.8902Z" fill="#075A8C"/>
<path d="M195.726 30.4838L192.461 24.9629L190.472 26.9219V29.9496C190.472 30.6916 190.294 31.2556 189.908 31.6414C189.522 32.0273 189.107 32.2351 188.602 32.2351C188.038 32.2351 187.593 32.0273 187.266 31.6414C186.94 31.2556 186.791 30.6619 186.791 29.9199V13.6836C186.791 12.8525 186.94 12.1995 187.266 11.7542C187.593 11.309 188.038 11.1012 188.632 11.1012C189.196 11.1012 189.641 11.309 189.997 11.6949C190.324 12.0807 190.502 12.6744 190.502 13.4758V22.707L194.657 18.225C195.162 17.661 195.577 17.2752 195.844 17.0971C196.112 16.8893 196.438 16.8002 196.824 16.8002C197.269 16.8002 197.655 16.9487 197.982 17.2455C198.278 17.5423 198.427 17.9282 198.427 18.3734C198.427 18.9374 197.922 19.6794 196.913 20.5996L194.954 22.4399L198.753 28.5842C199.02 29.0294 199.228 29.3856 199.347 29.623C199.466 29.8605 199.525 30.098 199.525 30.3057C199.525 30.8994 199.377 31.3743 199.05 31.7305C198.724 32.0867 198.308 32.2648 197.774 32.2648C197.329 32.2648 196.972 32.146 196.735 31.8789C196.468 31.5821 196.141 31.1368 195.726 30.4838Z" fill="#075A8C"/>
<path d="M69.6349 34.8175C69.6349 43.3066 66.5776 51.1131 61.5316 57.1386C55.1499 64.767 45.5625 69.6349 34.8175 69.6349C21.8463 69.6349 10.5669 62.5705 4.57109 52.0629C1.66221 46.9872 0 41.0804 0 34.8175C0 15.5833 15.5833 0 34.8175 0C54.0517 0 69.6349 15.5833 69.6349 34.8175Z" fill="url(#paint0_linear_45_160)"/>
<path d="M45.0584 15.4349C45.0281 15.4652 45.0281 15.4652 45.0584 15.4349V15.4349Z" fill="white"/>
<path d="M50.1929 19.2342C50.1336 19.5904 49.9555 19.9762 50.0148 20.3324C50.1336 21.1932 50.4007 22.054 50.4601 22.9445C50.5491 23.6865 50.4601 24.4583 50.4601 25.23C49.3025 26.7735 49.3025 28.6138 49.1244 30.3948C48.8276 32.2944 48.1152 34.0457 47.0763 35.6782C46.0968 36.5687 45.1469 37.4889 43.9893 38.5277C44.2861 39.0917 44.672 39.8634 45.0579 40.6352C45.2953 41.1101 45.5328 41.585 45.7406 42.0896C45.8593 43.2472 45.6219 44.3158 45.1766 45.3844C44.8798 46.0671 44.8798 46.8685 44.7611 47.6105C44.7314 48.7682 45.1766 49.6586 46.0671 50.4007C46.4233 50.6975 46.542 51.2912 46.7795 51.7661C46.4826 52.0926 46.1858 52.4191 45.889 52.7753C45.4734 52.7753 45.0876 52.7753 44.7017 52.7456C43.0692 52.5972 42.5942 52.0629 42.4162 50.4897C42.2974 49.3618 42.06 48.2636 41.8819 47.0763C40.7539 47.4621 40.2197 48.3229 39.6557 49.1244C39.2698 49.718 38.8543 50.3413 38.0528 50.1632C37.2811 49.9851 37.014 49.3321 36.8952 48.6198C37.2514 48.0261 37.5482 47.3731 37.9935 46.8091C38.7949 45.7109 39.6854 44.672 40.5165 43.6034C40.6055 43.0691 40.8727 42.5052 40.7539 42.0006C40.3681 40.2493 38.0528 38.4387 35.8267 39.1808C34.3425 39.6854 32.71 39.8338 31.1665 40.1603C30.2167 40.368 29.2372 40.3977 28.6138 41.3476C28.1983 41.9709 27.7234 42.5942 27.2781 43.2176C25.9127 44.4939 25.8534 47.0466 26.8329 48.5901C27.9015 50.1336 28.9403 51.7067 30.0089 53.2502C30.1276 53.4283 30.2464 53.6361 30.3651 53.8142C30.6916 54.3781 30.7213 54.8531 30.0386 55.1796C29.9495 55.1499 29.8605 55.1499 29.7715 55.1202C29.4153 54.764 29.0591 54.4375 28.7029 54.111C27.9608 53.3689 27.2188 52.5972 26.4767 51.8551C25.3191 50.2226 24.1615 48.5604 23.0039 46.9279C22.9148 46.9575 22.8554 46.9872 22.7664 47.0169C22.6774 48.501 22.5586 49.9555 22.4993 51.4396C22.4399 52.4191 22.2915 53.3096 21.2823 53.7548C21.0745 53.7548 20.8667 53.7548 20.659 53.7548C19.7982 52.9831 19.8278 51.9145 19.7982 50.9053C19.7685 49.7477 19.8872 48.5901 19.9169 47.4028C20.4215 45.5031 20.9558 43.6331 21.4604 41.7334C22.2915 40.9023 21.965 40.1603 21.4307 39.2401C20.6886 37.9341 20.2137 36.5093 19.6498 35.1143C19.1748 33.0662 19.4717 31.1368 20.659 29.3559C22.4102 27.2781 24.8145 26.7438 27.3375 26.6251C29.7714 26.5064 32.2054 26.5064 34.6097 26.4173C36.5984 26.358 38.5574 26.2095 40.3978 25.3784C41.4366 24.9035 42.3865 24.3099 42.4755 23.0038C42.1787 22.4696 41.9412 21.8759 41.5257 21.4604C40.0416 19.9762 38.4684 18.5515 36.9249 17.097C35.144 15.4348 34.8471 13.179 34.5206 10.9825C34.58 9.37962 34.6394 7.77677 34.6987 6.17392C34.7581 5.90678 34.8175 5.63964 34.8768 5.3725C34.9065 5.3725 34.9659 5.3725 34.9956 5.3725C35.0549 5.63964 35.144 5.93646 35.2033 6.2036C35.4408 7.09408 35.6486 8.04391 35.9751 8.9047C36.2125 9.55772 36.8062 9.79518 37.5186 9.61708C37.8747 9.52803 38.2309 9.55772 38.5871 9.52803C38.6762 9.70613 38.7949 9.85454 38.9136 10.0326C38.5871 10.181 38.2903 10.3295 37.9935 10.5076C37.6967 10.7153 37.4295 10.9528 37.1624 11.1606C36.7171 12.3775 37.6076 14.7225 38.8839 15.5832C39.2995 15.8504 39.7744 16.0285 40.2493 16.2659C40.6055 15.1083 40.9024 14.0991 41.1992 13.0899C41.496 14.0101 41.7335 14.9005 41.7335 15.791C41.7335 17.097 42.6239 17.7204 43.5144 18.3437C44.2861 18.878 44.7907 18.6405 44.9688 17.6907C45.0876 16.9783 45.0579 16.2363 45.0876 15.5239C45.4438 15.9691 45.7999 16.444 46.1858 16.919C46.6014 16.5924 47.0169 16.2659 47.4622 15.8801C47.9371 16.7112 48.412 17.5423 49.0353 18.5812C49.3322 17.9578 49.6587 17.5423 49.6883 17.1267C49.7477 16.2363 49.718 15.3458 49.5993 14.485C49.4212 13.2087 48.7682 12.2588 47.5512 11.7542C47.3434 11.6652 47.195 11.4871 47.0169 11.3683C46.8091 10.8341 46.6014 10.2998 46.3639 9.76549C46.453 9.70613 46.542 9.67645 46.6014 9.61708C47.106 9.97327 47.5809 10.3295 48.323 10.8637C48.412 10.092 48.7088 9.4093 48.5307 8.87502C48.2042 7.92518 47.5809 7.09408 47.106 6.2036C47.5215 6.29265 47.9371 6.3817 48.3823 6.47075C50.4304 7.83614 50.935 9.91391 51.0834 12.1401C51.0834 12.4072 51.0537 12.7041 51.0537 12.9712C51.024 13.2087 50.9647 13.4758 50.9053 13.7133C50.9647 13.7429 51.0241 13.7726 51.0834 13.8023C51.2912 13.6242 51.4693 13.4461 51.6771 13.268C52.0629 13.0306 52.4191 12.7634 52.805 12.526L52.9237 12.6447C52.894 12.7931 52.8644 12.9415 52.8347 13.0899C51.9145 15.1083 51.0537 17.1564 50.1929 19.2342Z" fill="white"/>
<path d="M61.5316 57.1386C55.1499 64.767 45.5625 69.6349 34.8175 69.6349C21.8463 69.6349 10.567 62.5705 4.57111 52.0629C4.68984 52.0629 4.83825 52.0333 4.95698 52.0333C6.47078 52.0629 7.9549 52.2114 9.4687 52.1223C10.1217 52.0926 10.7747 51.6474 11.4277 51.4099C11.4277 51.3209 11.3981 51.2022 11.3684 51.1131C11.5465 51.2022 11.7246 51.3209 11.873 51.4099C14.1585 53.2502 16.8299 53.7845 19.6795 53.7252C19.8575 53.7252 20.0653 53.6361 20.2434 53.5471C20.4512 53.5471 20.6887 53.5471 20.8964 53.5471C22.8555 53.369 24.6958 52.8347 26.2689 51.588C27.0407 52.3598 27.8124 53.1315 28.5842 53.9329C28.9404 54.2891 29.3262 54.6156 29.6824 54.9718C29.7715 55.0015 29.8605 55.0015 29.9496 55.0312C30.5135 55.4764 31.0775 55.9513 31.6415 56.3966C34.7581 57.851 37.8748 57.6432 41.0211 56.4856C41.7038 56.1591 42.3568 55.8326 43.0692 55.5061C43.6628 55.0312 44.2862 54.5563 44.8798 54.0813C45.147 53.7845 45.3844 53.4877 45.6516 53.2206C45.889 52.9831 46.1265 52.716 46.3639 52.4785C46.6608 52.152 46.9873 51.7958 47.2841 51.4396C47.9965 50.6085 48.6792 49.7774 49.4212 48.976C50.1633 48.1746 50.4304 48.1746 51.1725 48.976C52.063 49.9555 52.8644 50.9944 53.7252 52.0036C54.2595 52.6863 54.7641 53.3987 55.2983 54.0813C55.8029 54.5563 56.3075 55.0312 56.7825 55.4764C57.2277 55.8029 57.6729 56.1294 58.1182 56.4559C59.2164 57.1386 60.374 57.5245 61.5316 57.1386Z" fill="url(#paint1_linear_45_160)"/>
<path d="M52.894 12.4073C52.8644 12.4666 52.8644 12.526 52.8347 12.615L52.7159 12.4963C52.805 12.4666 52.8347 12.4369 52.894 12.4073Z" fill="white"/>
<path d="M45.0579 15.4349C45.0283 15.4645 45.0283 15.4645 45.0579 15.4349C44.9986 15.4349 44.9689 15.4052 44.9392 15.4052C44.9689 15.4052 44.9986 15.4052 45.0579 15.4349Z" fill="#357EBE"/>
<path d="M45.0579 15.4349C44.9986 15.4349 44.9689 15.4052 44.9392 15.4052C44.9689 15.4052 44.9986 15.4052 45.0579 15.4349Z" fill="white"/>
<path d="M90.9171 49.4806C90.9171 49.9258 90.7984 50.4007 90.5906 50.9053C90.3829 51.4099 90.0267 51.9145 89.5814 52.4191C89.1065 52.9237 88.5129 53.3096 87.8005 53.6361C87.0881 53.9329 86.2273 54.111 85.2775 54.111C84.5354 54.111 83.8824 54.0517 83.2888 53.9032C82.6951 53.7548 82.1608 53.5471 81.6562 53.2502C81.1813 52.9534 80.7064 52.5675 80.3205 52.0926C79.9643 51.6474 79.6378 51.1725 79.4004 50.6382C79.1332 50.1039 78.9551 49.5399 78.8067 48.9166C78.688 48.2933 78.5989 47.6699 78.5989 46.9872C78.5989 45.8593 78.7474 44.8798 79.0739 43.9893C79.4004 43.0989 79.8753 42.3568 80.4689 41.7335C81.0626 41.1101 81.775 40.6352 82.5764 40.3087C83.3778 39.9822 84.2386 39.8041 85.1588 39.8041C86.2867 39.8041 87.2662 40.0416 88.1567 40.4868C89.0175 40.932 89.7002 41.496 90.1751 42.149C90.65 42.802 90.8875 43.4254 90.8875 44.019C90.8875 44.3455 90.7687 44.6127 90.561 44.8798C90.3532 45.1469 90.0563 45.236 89.7298 45.236C89.3737 45.236 89.1065 45.1469 88.9284 44.9688C88.7503 44.7907 88.5426 44.4939 88.3348 44.0784C87.9786 43.3957 87.5333 42.8911 87.0584 42.5349C86.5538 42.2084 85.9602 42.0303 85.2478 42.0303C84.0902 42.0303 83.17 42.4755 82.4873 43.3363C81.8046 44.1971 81.4781 45.4438 81.4781 47.0763C81.4781 48.1449 81.6265 49.0353 81.9234 49.7477C82.2202 50.4601 82.6654 50.9944 83.1997 51.3506C83.7637 51.7067 84.387 51.8848 85.1291 51.8848C85.9305 51.8848 86.6132 51.6771 87.1772 51.2912C87.7411 50.9053 88.1567 50.3117 88.4238 49.5399C88.5425 49.1837 88.691 48.8869 88.8691 48.6495C89.0471 48.412 89.3143 48.2933 89.7298 48.2933C90.0563 48.2933 90.3532 48.412 90.5906 48.6495C90.7984 48.8572 90.9171 49.1244 90.9171 49.4806Z" fill="#075A8C"/>
<path d="M98.9612 52.3894V41.496C98.9612 40.932 99.0799 40.5165 99.3471 40.2197C99.6142 39.9228 99.9407 39.8041 100.356 39.8041C100.772 39.8041 101.128 39.9525 101.365 40.2197C101.603 40.4868 101.751 40.932 101.751 41.496V52.3894C101.751 52.9534 101.633 53.3986 101.365 53.6658C101.098 53.9329 100.772 54.0813 100.356 54.0813C99.9407 54.0813 99.6142 53.9329 99.3471 53.6658C99.0799 53.3986 98.9612 52.9534 98.9612 52.3894Z" fill="#075A8C"/>
<path d="M113.951 41.4663L119.323 49.629V41.4069C119.323 40.8727 119.442 40.4571 119.679 40.19C119.917 39.9228 120.214 39.7744 120.6 39.7744C121.015 39.7744 121.312 39.9228 121.549 40.19C121.787 40.4571 121.906 40.8727 121.906 41.4069V52.2707C121.906 53.4877 121.401 54.0813 120.392 54.0813C120.154 54.0813 119.917 54.0517 119.709 53.9626C119.501 53.9032 119.323 53.7845 119.145 53.6064C118.967 53.458 118.819 53.2799 118.641 53.0424C118.492 52.8347 118.344 52.6269 118.195 52.3894L112.942 44.3455V52.4488C112.942 52.9831 112.823 53.369 112.585 53.6361C112.348 53.9032 112.021 54.0517 111.636 54.0517C111.25 54.0517 110.923 53.9032 110.686 53.6361C110.448 53.369 110.33 52.9534 110.33 52.4488V41.7928C110.33 41.3476 110.389 40.9914 110.478 40.7242C110.597 40.4274 110.804 40.2196 111.072 40.0416C111.339 39.8635 111.636 39.7744 111.962 39.7744C112.2 39.7744 112.437 39.8041 112.615 39.8931C112.793 39.9822 112.942 40.0712 113.09 40.2197C113.238 40.3681 113.357 40.5462 113.506 40.7539C113.654 40.9914 113.802 41.2289 113.951 41.4663Z" fill="#075A8C"/>
<path d="M139.507 42.1787H133.185V45.5625H139.003C139.418 45.5625 139.745 45.6516 139.952 45.8593C140.16 46.0671 140.279 46.3046 140.279 46.6311C140.279 46.9576 140.19 47.195 139.982 47.4028C139.774 47.6106 139.448 47.6996 139.032 47.6996H133.215V51.6474H139.745C140.19 51.6474 140.516 51.7365 140.754 51.9442C140.991 52.152 141.08 52.4191 141.08 52.7457C141.08 53.0722 140.962 53.3393 140.754 53.5471C140.546 53.7549 140.19 53.8439 139.745 53.8439H132.146C131.523 53.8439 131.107 53.6955 130.84 53.4283C130.573 53.1612 130.424 52.716 130.424 52.1223V41.7335C130.424 41.3179 130.484 40.9914 130.603 40.754C130.721 40.4868 130.899 40.3087 131.166 40.19C131.434 40.0713 131.76 40.0119 132.146 40.0119H139.507C139.952 40.0119 140.279 40.1009 140.516 40.3087C140.724 40.5165 140.843 40.754 140.843 41.0805C140.843 41.407 140.724 41.6741 140.516 41.8819C140.279 42.0897 139.952 42.1787 139.507 42.1787Z" fill="#075A8C"/>
<path d="M153.339 51.7661L151.113 42.9505V52.5082C151.113 53.0425 150.994 53.4283 150.757 53.6955C150.519 53.9626 150.223 54.0814 149.807 54.0814C149.421 54.0814 149.124 53.9626 148.887 53.6955C148.649 53.4283 148.531 53.0425 148.531 52.5082V41.5554C148.531 40.9617 148.679 40.5462 149.006 40.3384C149.332 40.1306 149.748 40.0119 150.282 40.0119H151.143C151.677 40.0119 152.033 40.0713 152.271 40.1603C152.508 40.2494 152.686 40.4275 152.805 40.6649C152.924 40.9024 153.042 41.3179 153.191 41.8522L155.209 49.4212L157.228 41.8522C157.376 41.2882 157.495 40.9024 157.614 40.6649C157.732 40.4275 157.91 40.2494 158.148 40.1603C158.385 40.0713 158.771 40.0119 159.276 40.0119H160.137C160.671 40.0119 161.086 40.1306 161.413 40.3384C161.739 40.5462 161.888 40.9617 161.888 41.5554V52.5082C161.888 53.0425 161.769 53.4283 161.532 53.6955C161.294 53.9626 160.968 54.0814 160.582 54.0814C160.196 54.0814 159.899 53.9626 159.662 53.6955C159.424 53.4283 159.305 53.0425 159.305 52.5082V42.9505L157.079 51.7661C156.931 52.3301 156.812 52.7457 156.723 53.0128C156.634 53.2799 156.456 53.5174 156.218 53.7549C155.981 53.9923 155.625 54.0814 155.209 54.0814C154.883 54.0814 154.616 54.022 154.378 53.8736C154.141 53.7252 153.963 53.5471 153.844 53.3393C153.725 53.1315 153.606 52.8644 153.547 52.5972C153.488 52.3301 153.428 52.063 153.339 51.7661Z" fill="#075A8C"/>
<path d="M179.044 52.2707L178.391 50.5491H172.752L172.099 52.3301C171.831 53.0128 171.624 53.4877 171.446 53.7251C171.267 53.9626 170.971 54.0813 170.555 54.0813C170.199 54.0813 169.902 53.9626 169.635 53.6955C169.368 53.4283 169.219 53.1315 169.219 52.805C169.219 52.6269 169.249 52.4191 169.308 52.2113C169.368 52.0036 169.487 51.7364 169.605 51.3802L173.137 42.3865C173.227 42.1193 173.345 41.8225 173.494 41.4663C173.642 41.1101 173.79 40.8133 173.939 40.5758C174.087 40.3384 174.325 40.1306 174.562 39.9822C174.829 39.8338 175.156 39.7744 175.542 39.7744C175.928 39.7744 176.254 39.8338 176.521 39.9822C176.788 40.1306 176.996 40.3087 177.145 40.5462C177.293 40.7836 177.441 41.0211 177.56 41.2882C177.679 41.5554 177.798 41.9115 177.976 42.3568L181.597 51.2912C181.894 51.9739 182.013 52.4785 182.013 52.7753C182.013 53.1018 181.864 53.3986 181.597 53.6658C181.33 53.9329 181.003 54.0517 180.617 54.0517C180.41 54.0517 180.202 54.022 180.053 53.9329C179.905 53.8439 179.757 53.7548 179.668 53.6064C179.549 53.458 179.46 53.2502 179.311 52.9831C179.163 52.7159 179.133 52.5082 179.044 52.2707ZM173.494 48.4417H177.62L175.542 42.7427L173.494 48.4417Z" fill="#075A8C"/>
<path d="M200 49.6883C200 50.5195 199.792 51.2615 199.347 51.9442C198.902 52.5972 198.278 53.1315 197.447 53.5174C196.616 53.9032 195.637 54.0813 194.509 54.0813C193.143 54.0813 192.015 53.8142 191.125 53.3096C190.502 52.9534 189.997 52.4488 189.582 51.8255C189.196 51.2022 188.988 50.6085 188.988 50.0149C188.988 49.6883 189.107 49.3915 189.344 49.1541C189.582 48.9166 189.878 48.7979 190.235 48.7979C190.531 48.7979 190.769 48.8869 190.977 49.0947C191.184 49.2728 191.362 49.5696 191.511 49.9258C191.689 50.371 191.867 50.7272 192.075 51.0241C192.283 51.3209 192.579 51.5583 192.936 51.7661C193.292 51.9442 193.796 52.0629 194.39 52.0629C195.221 52.0629 195.904 51.8552 196.408 51.4693C196.913 51.0834 197.18 50.6085 197.18 50.0149C197.18 49.5696 197.032 49.1837 196.765 48.8869C196.498 48.5901 196.112 48.3823 195.666 48.2339C195.221 48.0855 194.628 47.9371 193.885 47.759C192.906 47.5215 192.075 47.2544 191.392 46.9576C190.709 46.6607 190.205 46.2155 189.789 45.6812C189.403 45.1469 189.196 44.4642 189.196 43.6628C189.196 42.8911 189.403 42.2381 189.819 41.6444C190.235 41.0508 190.828 40.6055 191.63 40.279C192.401 39.9525 193.351 39.8041 194.39 39.8041C195.251 39.8041 195.963 39.9228 196.587 40.1306C197.21 40.3384 197.714 40.6352 198.13 40.9617C198.546 41.2882 198.842 41.6741 199.021 42.06C199.199 42.4458 199.317 42.8317 199.317 43.1879C199.317 43.5144 199.199 43.8112 198.961 44.0784C198.724 44.3455 198.427 44.4939 198.071 44.4939C197.744 44.4939 197.507 44.4049 197.329 44.2565C197.151 44.1081 196.972 43.8409 196.794 43.455C196.557 42.9208 196.23 42.5349 195.874 42.2381C195.518 41.9412 194.954 41.7928 194.182 41.7928C193.47 41.7928 192.876 41.9412 192.431 42.2677C191.986 42.5942 191.778 42.9801 191.778 43.4254C191.778 43.6925 191.867 43.93 192.015 44.1377C192.164 44.3455 192.372 44.5236 192.639 44.6423C192.906 44.7907 193.173 44.9095 193.44 44.9688C193.707 45.0579 194.153 45.1766 194.776 45.325C195.548 45.5031 196.26 45.7109 196.883 45.9187C197.507 46.1265 198.041 46.3936 198.486 46.7201C198.931 47.0466 199.288 47.4325 199.525 47.9074C199.881 48.412 200 49.0056 200 49.6883Z" fill="#075A8C"/>
<defs>
<linearGradient id="paint0_linear_45_160" x1="34.8201" y1="69.633" x2="34.8201" y2="0" gradientUnits="userSpaceOnUse">
<stop stop-color="#62A7D7"/>
<stop offset="1" stop-color="#286FB7"/>
</linearGradient>
<linearGradient id="paint1_linear_45_160" x1="33.0506" y1="69.633" x2="33.0506" y2="48.4216" gradientUnits="userSpaceOnUse">
<stop stop-color="#7D9D82"/>
<stop offset="1" stop-color="#1F7149"/>
</linearGradient>
</defs>
</svg>
