<mxfile host="app.diagrams.net" modified="2023-06-09T06:26:50.162Z" agent="Mozilla/5.0 (Windows NT 10.0; Win64; x64) AppleWebKit/537.36 (KHTML, like Gecko) Chrome/114.0.0.0 Safari/537.36" etag="sAZRt1EcvIf6zGOkyOy1" version="21.3.7" type="device">
  <diagram id="C5RBs43oDa-KdzZeNtuy" name="Page-1">
    <mxGraphModel dx="911" dy="490" grid="1" gridSize="10" guides="1" tooltips="1" connect="1" arrows="1" fold="1" page="1" pageScale="1" pageWidth="827" pageHeight="1169" math="0" shadow="0">
      <root>
        <mxCell id="WIyWlLk6GJQsqaUBKTNV-0" />
        <mxCell id="WIyWlLk6GJQsqaUBKTNV-1" parent="WIyWlLk6GJQsqaUBKTNV-0" />
        <mxCell id="GUXxIQuyk-zwSfb-43EV-5" value="" style="edgeStyle=orthogonalEdgeStyle;rounded=0;orthogonalLoop=1;jettySize=auto;html=1;" edge="1" parent="WIyWlLk6GJQsqaUBKTNV-1" source="GUXxIQuyk-zwSfb-43EV-0" target="GUXxIQuyk-zwSfb-43EV-2">
          <mxGeometry relative="1" as="geometry" />
        </mxCell>
        <mxCell id="GUXxIQuyk-zwSfb-43EV-0" value="Start" style="ellipse;whiteSpace=wrap;html=1;" vertex="1" parent="WIyWlLk6GJQsqaUBKTNV-1">
          <mxGeometry x="329" y="30" width="110" height="50" as="geometry" />
        </mxCell>
        <mxCell id="GUXxIQuyk-zwSfb-43EV-1" value="End" style="ellipse;whiteSpace=wrap;html=1;" vertex="1" parent="WIyWlLk6GJQsqaUBKTNV-1">
          <mxGeometry x="344" y="600" width="110" height="50" as="geometry" />
        </mxCell>
        <mxCell id="GUXxIQuyk-zwSfb-43EV-6" value="" style="edgeStyle=orthogonalEdgeStyle;rounded=0;orthogonalLoop=1;jettySize=auto;html=1;" edge="1" parent="WIyWlLk6GJQsqaUBKTNV-1" source="GUXxIQuyk-zwSfb-43EV-2" target="GUXxIQuyk-zwSfb-43EV-4">
          <mxGeometry relative="1" as="geometry" />
        </mxCell>
        <mxCell id="GUXxIQuyk-zwSfb-43EV-2" value="flow for isAuthenticated" style="rounded=1;whiteSpace=wrap;html=1;fontSize=12;glass=0;strokeWidth=1;shadow=0;" vertex="1" parent="WIyWlLk6GJQsqaUBKTNV-1">
          <mxGeometry x="324" y="120" width="120" height="40" as="geometry" />
        </mxCell>
        <mxCell id="GUXxIQuyk-zwSfb-43EV-9" value="" style="edgeStyle=orthogonalEdgeStyle;rounded=0;orthogonalLoop=1;jettySize=auto;html=1;" edge="1" parent="WIyWlLk6GJQsqaUBKTNV-1" source="GUXxIQuyk-zwSfb-43EV-4" target="GUXxIQuyk-zwSfb-43EV-7">
          <mxGeometry relative="1" as="geometry" />
        </mxCell>
        <mxCell id="GUXxIQuyk-zwSfb-43EV-4" value="Token" style="rounded=1;whiteSpace=wrap;html=1;fontSize=12;glass=0;strokeWidth=1;shadow=0;" vertex="1" parent="WIyWlLk6GJQsqaUBKTNV-1">
          <mxGeometry x="324" y="200" width="120" height="40" as="geometry" />
        </mxCell>
        <mxCell id="GUXxIQuyk-zwSfb-43EV-10" value="" style="edgeStyle=orthogonalEdgeStyle;rounded=0;orthogonalLoop=1;jettySize=auto;html=1;" edge="1" parent="WIyWlLk6GJQsqaUBKTNV-1" source="GUXxIQuyk-zwSfb-43EV-7" target="GUXxIQuyk-zwSfb-43EV-8">
          <mxGeometry relative="1" as="geometry" />
        </mxCell>
        <mxCell id="GUXxIQuyk-zwSfb-43EV-7" value="isAuthenticated middleware" style="rounded=1;whiteSpace=wrap;html=1;fontSize=12;glass=0;strokeWidth=1;shadow=0;" vertex="1" parent="WIyWlLk6GJQsqaUBKTNV-1">
          <mxGeometry x="324" y="280" width="120" height="40" as="geometry" />
        </mxCell>
        <mxCell id="GUXxIQuyk-zwSfb-43EV-14" value="" style="edgeStyle=orthogonalEdgeStyle;rounded=0;orthogonalLoop=1;jettySize=auto;html=1;" edge="1" parent="WIyWlLk6GJQsqaUBKTNV-1" source="GUXxIQuyk-zwSfb-43EV-8" target="GUXxIQuyk-zwSfb-43EV-11">
          <mxGeometry relative="1" as="geometry" />
        </mxCell>
        <mxCell id="GUXxIQuyk-zwSfb-43EV-16" style="edgeStyle=orthogonalEdgeStyle;rounded=0;orthogonalLoop=1;jettySize=auto;html=1;entryX=0.415;entryY=-0.053;entryDx=0;entryDy=0;entryPerimeter=0;" edge="1" parent="WIyWlLk6GJQsqaUBKTNV-1" source="GUXxIQuyk-zwSfb-43EV-8" target="GUXxIQuyk-zwSfb-43EV-12">
          <mxGeometry relative="1" as="geometry" />
        </mxCell>
        <mxCell id="GUXxIQuyk-zwSfb-43EV-17" style="edgeStyle=orthogonalEdgeStyle;rounded=0;orthogonalLoop=1;jettySize=auto;html=1;entryX=0.5;entryY=0;entryDx=0;entryDy=0;" edge="1" parent="WIyWlLk6GJQsqaUBKTNV-1">
          <mxGeometry relative="1" as="geometry">
            <mxPoint x="384" y="439" as="sourcePoint" />
            <mxPoint x="500" y="506" as="targetPoint" />
            <Array as="points">
              <mxPoint x="384" y="466" />
              <mxPoint x="500" y="466" />
            </Array>
          </mxGeometry>
        </mxCell>
        <mxCell id="GUXxIQuyk-zwSfb-43EV-8" value="Token verified?" style="rhombus;whiteSpace=wrap;html=1;" vertex="1" parent="WIyWlLk6GJQsqaUBKTNV-1">
          <mxGeometry x="344" y="353" width="80" height="80" as="geometry" />
        </mxCell>
        <mxCell id="GUXxIQuyk-zwSfb-43EV-11" value="Error" style="rounded=1;whiteSpace=wrap;html=1;fontSize=12;glass=0;strokeWidth=1;shadow=0;" vertex="1" parent="WIyWlLk6GJQsqaUBKTNV-1">
          <mxGeometry x="490" y="373" width="120" height="40" as="geometry" />
        </mxCell>
        <mxCell id="GUXxIQuyk-zwSfb-43EV-18" style="edgeStyle=orthogonalEdgeStyle;rounded=0;orthogonalLoop=1;jettySize=auto;html=1;" edge="1" parent="WIyWlLk6GJQsqaUBKTNV-1" source="GUXxIQuyk-zwSfb-43EV-12" target="GUXxIQuyk-zwSfb-43EV-1">
          <mxGeometry relative="1" as="geometry" />
        </mxCell>
        <mxCell id="GUXxIQuyk-zwSfb-43EV-12" value="req.info = id and role" style="rounded=1;whiteSpace=wrap;html=1;fontSize=12;glass=0;strokeWidth=1;shadow=0;" vertex="1" parent="WIyWlLk6GJQsqaUBKTNV-1">
          <mxGeometry x="225" y="503" width="120" height="40" as="geometry" />
        </mxCell>
        <mxCell id="GUXxIQuyk-zwSfb-43EV-19" style="edgeStyle=orthogonalEdgeStyle;rounded=0;orthogonalLoop=1;jettySize=auto;html=1;entryX=0.5;entryY=0;entryDx=0;entryDy=0;" edge="1" parent="WIyWlLk6GJQsqaUBKTNV-1" source="GUXxIQuyk-zwSfb-43EV-13" target="GUXxIQuyk-zwSfb-43EV-1">
          <mxGeometry relative="1" as="geometry" />
        </mxCell>
        <mxCell id="GUXxIQuyk-zwSfb-43EV-13" value="req.token = token and tokenId" style="rounded=1;whiteSpace=wrap;html=1;fontSize=12;glass=0;strokeWidth=1;shadow=0;" vertex="1" parent="WIyWlLk6GJQsqaUBKTNV-1">
          <mxGeometry x="440" y="508" width="120" height="40" as="geometry" />
        </mxCell>
        <mxCell id="GUXxIQuyk-zwSfb-43EV-15" value="No&lt;br&gt;" style="text;html=1;align=center;verticalAlign=middle;resizable=0;points=[];autosize=1;strokeColor=none;fillColor=none;" vertex="1" parent="WIyWlLk6GJQsqaUBKTNV-1">
          <mxGeometry x="430" y="368" width="40" height="30" as="geometry" />
        </mxCell>
        <mxCell id="GUXxIQuyk-zwSfb-43EV-20" value="Yes" style="text;html=1;align=center;verticalAlign=middle;resizable=0;points=[];autosize=1;strokeColor=none;fillColor=none;" vertex="1" parent="WIyWlLk6GJQsqaUBKTNV-1">
          <mxGeometry x="380" y="428" width="40" height="30" as="geometry" />
        </mxCell>
      </root>
    </mxGraphModel>
  </diagram>
</mxfile>
